PISTA 1	PISTA 2	PISTA 3	¿QUERÉS OPCIONES?	PISTA 4 	PISTA 5	PISTA 6	RESPUESTA
Los lunes está cerrada.	Las personas van allí para embellecerse.	Hay muchos cepillos.		Se encuentran espejos y tijeras.	Se puede sacar turno antes de ir.	Lavan, cortan, peinan y tiñen.	La peluquería
Se come en la merienda o en el desayuno.	Está hecha de frutas.	Tiene textura gelatinosa.		Es rica y dulce.	Se cocina con azúcar.	Se le pone al pan o a las galletitas.	La mermelada
Animal doméstico.	Anda en cuatro patas.	Salta de un lado a otro.		Tiene pelaje muy suave.	Come zanahoria y pasto.	Tiene orejas largas.	El conejo
No se puede ver qué hay del otro lado.	Casi siempre hay uno en el baño.	Se puede romper fácilmente.		Suele tener marco.	Refleja al revés.	Las personas se miran en él.	El espejo
Es verde.	Es un vegetal.	Normalmente se come cruda.		Crece de la tierra.	Tiene hojas.	Se come en la ensalda. 	La lechuga
Elemento escolar.	Puede cargarse o arrastrarse.	Viene en muchos colores y tamaños.		Es de tela.	Tienen bolsillos.	Para guardar cuadernos, útiles, etc.	La mochila
Se aprende en el colegio.	Es largo.	Tiene todas las letras.		Se estudia en Lengua.	Son 27.	Empieza con la A y termina con la Z.	El abecedario
Es de papel.	Tiene información.	Hay uno nuevo cada día.		Tiene hojas muy grandes.	Es reciclable.	Trae las noticias del mundo.	El diario
Viene de muchos colores.	Se abre y se cierra.	Se usa cuando el día está feo.		Se usa arriba de la cabeza.	De tela o de plástico.	Nos protege de la lluvia.	El paraguas
Es una fruta.	Es tropical.	Es difícil de pelar y pincha.		Por afuera es marrón y verde.	Por adentro es amarillo.	Se corta en rodajas.	El ananá
Es un juego.	Se puede jugar solo o de a muchos.	Se salta.		También sirve para hacer ejercicio.	Cuando va rápido, es más difícil.	Es una cuerda.	La soga
Es a la noche.	Encuentro familiar.	Todos comen.		Se sientan a la mesa.	Después hay que cepillarse los dientes.	Al terminar, viene el postre.	La cena
Son de goma.	Son para el verano.	Para mujeres y varones.		No se arruinan si se mojan.	Se usan en los pies.	Se usan en la playa.	Las ojotas
Es un medio de transporte.	Para uso civil o militar.	Pueden viajar muchas personas.		Recorre largas distancias.	Es muy rápido.	Va por el aire.	El avión
Está en el baño.	Viene de diferentes sabores.	Se usa todos los días.		Para la limpieza personal.	Para evitar las caries.	Se pone en el cepillo de dientes.	La pasta de dientes
Típico de Argentina.	Es muy dulce.	Le gusta mucho a los niños.		Si se come mucho, empalaga.	Se hace con leche y azúcar.	Es relleno de alfajores y tortas.	El dulce de leche
Tenemos 20 en nuestro cuerpo.	Crecen todo el tiempo.	Son duras.		Hay que cortarlas cada tanto.	Se pueden pintar.	Están en los pies y en las manos.	Las uñas
Están en la cocina.	Se guardan en una cajita.	Chiquitos y de madera.		Se usan una sola vez.	Se frotan y hacen fuego.	Si se mojan no sirven.	Los fósforos
Es un espectáculo.	Para mucha gente.	Actúan personas y hay animales.		Sorprendente y gracioso.	Cambia de lugar.	Es adentro de una carpa.	El circo
Está muy lejos.	Es redondo.	En verano está más cerca.		Da luz.	Aparece durante el día.	Cuando dormimos, lo ven en China.	El sol
Todos los adultos tienen una.	Viene en diferentes materiales.	Las mujeres la guardan en la cartera.		Los ladrones quieren robarla.	Suele ser pequeña.	Se saca cuando hay que pagar.	La billetera.
Es líquido.	Típico francés.	Tiene rico aroma.		Para hombre o mujer.	Se pone en el cuello.	Viene en frasco.	El perfume
Todas las casas tienen una.	Sirve para abrir y cerrar.	No hay que perderla.		La tienen los adultos.	Es de metal.	Los porteros tienen muchas.	La llave
Es un animal terrestre.	Típico de África.	Es carnívoro.		Se mueve en manada.	Tiene muchos dientes.	En la selva es el rey.	El león
Es muy frío.	No tiene gusto.	Se usa en verano.		Es sólido.	En otro estado tiene otro nombre.	Con el calor se derrite.	El hielo
Es un instrumento musical.	Se puede tocar parado o sentado.	Normalmente es de madera.		Algunas se enchufan y otras no.	La usan en muchas bandas musicales.	Tiene seis cuerdas.	La guitarra
Sirven para deslizarse.	Se pueden usar para pasear.	No tienen motor.		Vienen de a pares.	Para uso recreativo o deportivo.	Para la calle tienen ruedas y para el hielo, una hoja de metal.	Los patines
Tiene agua.	En Argentina está el más ancho del mundo.	Desemboca en el mar.		Está en continuo movimiento.	Se puede navegar en él.	Allí viven peces.	El río
Se venden de a dos.	Se usan más en invierno.	Se usan un solo día y se lavan.		Protegen del frío.	Pueden ser de lana o de algodón.	Se usan en los pies.	Las medias
Es un animal salvaje.	Hay de varias razas.	Vive normalmente en el bosque.		Puede caminar en dos o cuatro patas.	Tiene pelaje largo.	Al de Disney le gusta comer miel.	El oso
Fenómeno de la naturaleza.	Puede ser muy destructivo.	Dura poco tiempo.		Tiene diferentes intensidades.	Puede provocar tsunamis.	La tierra se mueve.	Terremoto
Vive en el campo.	Hay muchos en la Argentina.	Es sucio.		Es muy gordo.	Tiene trompa rosa.	Hace “oink”.	El chancho
Es un animal.	Le gustan las migas de pan.	Aparece solo de día.		Hay muchas en las plazas.	Tiene plumas y pone huevos.	Es el símbolo de la paz.	La paloma
Es una fruta chica.	De muy rico sabor.	Tiene semillitas negras.		Sirve para hacer mermelada.	Se puede comer con crema.	De color rojo fuerte.	La frutilla
Es un lugar de entretenimiento.	Con muchos asientos.	Hay para chicos y para grandes.		Al final, todo el público aplaude.	Con escenarios coloridos.	Hay un telón.	El teatro
Continente lejano.	Es el más poblado.	Es el más grande.		Limita con el Océano Pacífico, el Índico y el Ártico.	Tiene una cultura milenaria.	Su población es oriental.	Asia
Su trabajo es muy arriesgado.	Está siempre alerta.	Porta un arma.		Tiene un auto con sirena.	Usa uniforme.	Atrapa ladrones.	Policía
Viajan por el mar.	Antes habían muchos.	Conocidos por ser ladrones.		Buscan tesoros.	Causan temor.	Jack Sparrow es el más conocido.	Piratas
Tiene cuatro ruedas.	Lleva a muchas personas.	Es barato viajar en él.		Se puede ir parado.	Tiene un recorrido fijo.	Se compra boleto.	El colectivo
Se guarda en un cajón.	Se usa todos los días para comer.	Algunos tienen dientes y otros tienen filo.		Tiene mango.	Para los más chicos es peligroso.	Acompaña al tenedor.	El cuchillo
Cuenta diferentes historias.	En el colegio se usa mucho.	Está lleno de palabras.		Tiene muchas hojas.	Por lo general es rectangular.	Se guarda en bibliotecas.	Libro
Es muy nutriva.	Se puede hacer puré.	Proviene de un árbol.		En un cuento está envenenada.	Roja, verde o amarilla.	Es una fruta.	Manzana
Puede ser suave o fuerte.	Relacionada con el clima. 	Es común en verano.		Es buena para el campo.	Puede ser destructiva.	Se forma en las nubes.	Lluvia
Las tenemos desde que nacemos.	Nos protejen los ojos.	Tenemos muchas.		A veces se caen.	Las mujeres se las pintan. 	Están en los párpados. 	Las pestañas
Tienen corta duración. 	Pueden tener diferentes formas. 	Se usan en los cumpleaños. 		A los niños les gustan mucho. 	Pueden volar.	Pueden explotar. 	Globos
Es muy importante para la vida.	Está en diferentes estados. 	Es transparente.		Se usa para regar. 	Ocupa el 70% de la tierra. 	Se puede congelar o evaporar.	El agua
Tiene un intenso sabor.	Se puede comer cruda o cocida. 	Tiene varias capas. 		Se usa para hacer salsas. 	Es un vegetal. 	Cuando se corta, hace llorar. 	La cebolla
Es macho.	Vive en la granja. 	Tienen una postura elegante. 		Tiene pico y cresta.	La gallina es su pareja. 	A la mañana despierta a todos. 	El gallo
Es inmenso.	Todos pueden verlo pero no tocarlo.	Cambia de la noche a la mañana.		Se lo asocia con lo divino.	Puede ser gris o celeste.	Donde están las nubes. 	El cielo
Personaje de fantasía.	Fue prohibida en la antigüedad. 	Es protagonista de películas y libros. 		Puede hacer hechizos.	Puede volar. 	Puede tener sombrero y capa. 	La bruja
Sirve para ver mejor. 	Lo usan los científicos.	Tiene un lente.		Es de metal.	Se usa en el laboratorio.	Sirve para ver cosas muy pequeñas. 	El microscopio
Es largo y finito.	Se usa para medir.	Lo usan los médicos.		Tiene números.	Puede ser de vidrio o plástico.	Sirve para medir la fiebre. 	Termómetro
Es un alimento.	Hay de muchas variedades. 	Se hace con leche.		Se usa en muchas comidas.	Puede ser blando o duro.	Se puede rallar.	El queso
Puede ser suave o fuerte. 	Se hace con agua caliente. 	Tienen rico aroma. 		Viene de unas semillas.	Se toma por la mañana. 	Puede tomarse solo o con leche. 	El café
Relacionado con la naturaleza.	Se ve pocas veces.	Es muy colorido.		Puede ser largo o corto.	Se forma con lluvia y sol.	Tiene 7 colores.	El arcoiris
Es un alimento.	Si se derrite te mancha.	Puede ser negro o blanco.		Es muy delicioso.	Se come más en invierno.	Se usa para decorar tortas.	El chocolate
Puede ser dulce o saldo.	Es muy crocante.	Cuando se calienta explota.		Se hace con maíz.	Se come mucho en el cine.	A los chicos les gusta mucho. 	El pochoclo
Es un personaje muy conocido.	Aparece de noche.	Es malvado y da miedo.		No le gusta la luz del día.	Duerme en un ataúd.	Se alimenta con sangre.	Drácula
Puede dormir muchas horas.	No puede hablar, pero sí llorar.	Es muy pequeño.		Necesita que lo cuiden.	Le gusta que lo lleven en brazos.	Usa chupete y toma mamadera.	Bebé
Es un objeto.	Puede estar en casas y negocios.	Sirve para proteger.		También puede estar en los autos.	Cuando se prende hace mucho ruido.	Puede tener luz. 	Alarma
Está en la cocina. 	Puede ser grande o pequeña.	Sirve para mantener los alimentos. 		Generalmente de forma rectangular.	Necesita electricidad para funcionar.	Enfría los alimentos.	La heladera
Es un animal.	Su enemigo es el león.	Tiene pequeños cuernos y largas patas. 		Tiene manchas en su piel. 	Tiene un cuello muy largo.	Come las hojas de los árboles. 	La jirafa
Está relacionado con el frío.	Es un ave. 	Le gusta el agua y no vuela. 		Es de color negro y blanco.	Come peces. 	Vive en la nieve. 	El pingüino
Puede ser de metal, de vidrio o de plástico.	Relacionado con el calor y el frío.	Se usa para el agua y el café. 		Se puede romper.	Se puede llevar de viaje. 	Mantiene frías o calientes las cosas. 	Termo
Es un personaje de un cuento. 	Vive con su madrastra.	Se caracteriza por su bondad.		Está enamorada. 	Una calabaza se convierte en su carroza.	Perdió un zapatito. 	La Cenicienta
