PISTA (aparece arriba a la izq siempre)	LÍNEA 1	LÍNEA 2	LÍNEA 3	LÍNEA 4	LÍNEA 5	¿QUERÉS OPCIONES?	OPCIÓN 1	OPCIÓN 2	OPCIÓN 3	RESPUESTA
Es una fruta.	Blanca por dentro, verde por fuera.	Si no lo adivinas, piensa y espera.					Pera	Manzana	Pepino	Pera
Es un lugar.	Abierta siempre estoy	para todos los niños.	Cerrada y triste me quedo	los sábados y domingos.			Banco	Teatro	Escuela	Escuela
Relacionado con la familia.	¿Qué parentesco tendrás	con la hija de una dama	que está con tu papá casada?				Tía	Hermana	Mamá	Hermana
Es un símbolo patrio.	Cada país me distingue,	pues yo lo represento,	suelo estar en las alturas,	cara al sol y cara al viento.			Bandera	Escarapela	Moneda	Bandera
Relacionado con la familia.	La hermana de mi tía	aunque no es tía mía,	¿sabrías decirme qué es mío?				Prima	Mamá	Hija	Mamá
Se usa en la escuela.	Es un sabio gordinflón,	si le preguntan no habla,	sabe todas las respuestas,	tiene todas las palabras.			Maestro	Libro	Diccionario	Diccionario
Se usa para vestirse.	No he de darte más razones,	sin mí perderías los pantalones.					Cinturón	Perchero	Lavarropas	Cinturón
Es un útil escolar.	Va y viene,	viene y va	y lo que antes estaba	ya no está.			Libro	Borrador	Estuche	Borrador
Son números.	¿Qué cosa será aquella	que mirada del derecho	y mirada del revés	siempre un número es?			1 y 11	22	6 y 9 	6 y 9
Se usa en la escuela.	Cae de la torre	y no se mata,	cae en el agua	y se desbarata.			Papel	Borrador	Tijera	Papel
Es un número.	Las estaciones del año,	también los elementos	y los puntos cardinales,	ese número represento.			12	4	2	4
Es una letra.	Dedos tiene dos,	piernas y brazos, ninguna.					La E	La S	La D	La D
Relacionado con la escritura.	Muy chiquito, chiquitito,	pone fin a lo escrito.					Lápiz	Punto	Coma	Punto
Es una letra.	En la luna es la primera	y la segunda en Plutón.	En la Tierra no se encuentra	y es la última en el Sol.			La A	La L	La U	La L
Se usa para construir.	Yo soy aquel desdichado	y es tan grande mi bajeza,	que después que me has comprado	y tu esclavo me has llamado	me quebrantas la cabeza.		Martillo	Pinza	Clavo	Clavo
Relacionado con la escritura.	Termino cabeza arriba,	empiezo cabeza abajo,	y tan sólo preguntar	es mi trabajo.			Signo de interrogación 	Signo de exclamación	Comillas	Signo de interrogación
Es una fruta.	Si la dejamos, se pasa;	si la vendemos, se pesa;	si se hace vino, se pisa.				La uva	La manzana	La ciruela	La uva
Es una herramienta.	Tengo cabeza de hierro	y mi cuerpo es de madera,	al que yo le piso un dedo,	¡menudo grito pega!			Tijera	Martillo	Serrucho	Martillo
Es un número.	Redondo soy	y es cosa anunciada	que a la derecha algo valgo,	pero a la izquierda, nada.			1	0	8	0
Es una letra.	Me parezco a la serpiente	y en la serpiente estoy,	pon a trabajar tu mente	para decirme quién soy.			La Q	La S	La E	La S
Elemento de la naturaleza.	Ni lo puedes ver,	ni vives sin él.					Aire	Agua	Tierra	Aire
Es una fruta.	Muy elegante la señora,	lleva un abrigo amarillo y largo.	Si quieres comértela,	tendrás que quitárselo.			Limón	Elote	Banana	Banana
Se usan para vestirse.	Juntas en ovillo,	duermen las mellizas;	cuando se separan,	estiradas andan.			Calcetas	Guantes	Bufandas	Calcetas
Es un útil escolar.	Soy largo y delgado,	con buena figura.	Y a mi pelo alocado	le cambio el color con pintura.			Sombrero	Pincel	Lapicera	Pincel
Es un alimento.	Muy ricas estamos fritas,	en puré también muy bien,	¡en tortilla maravilla!	también cocidas o asadas	e incluso en ensaladas.		El camote	La calabaza	La papa	La papa
Se usan en la cocina.	Caja llena de soldados,	todos largos y delgados	y con gorritos colorados.				Los cubiertos	Las cerillas	Los caramelos	Las cerillas
Es un elemento de la naturaleza.	De la tierra voy al cielo	y del cielo he de volver;	soy el alma de los campos	que los hace florecer.			Tierra	Fuego	Agua	Agua
Es una fruta.	A mí me tratan de santa	y traigo conmigo el día,	soy redonda y colorida	y tengo la sangre fría.			El melón	La sandía	La uva	La sandía
Es un mueble.	Con patas y espalda,	no se mueve ni anda.					Hombre	Silla	Banquito	Silla
Es un instrumento musical.	La habrás oído tocar,	piensa, medita, recuerda,	¿qué instrumento musical	no tiene más que una cuerda?			La guitarra	El bajo	La campana	La campana
Es un lugar.	Vivo dentro de ella	y el caracol también.	Él la lleva a cuestas	y yo nunca podré.			Escuela	Techo	Casa	Casa
Relacionado con los planetas.	Girando toda su vida,	no aprendió a ser más rápida;	da una vuelta y tarda un día,	da otra vuelta y tarda un año.			El invierno	La Luna	La Tierra	La Tierra
Es una herramienta.	Mil dientes bien en fila,	agudos y cortantes,	que árboles robustos	derriban al instante.			Sierra	Tijera	Machete	Sierra
Relacionado con la comida.	Sube llena,	baja vacía,	y si no se da prisa,	la sopa se enfría.			El microondas	El tenedor	La cuchara	La cuchara
Relacionado con el espacio.	Redondo, redondo	como un pandero.	Quien me toma en verano	debe usar sombrero.			Coco	Licuado	Sol	Sol
Es un mueble.	Aunque tengo cuatro patas,	no me puedo mover.	Llevo encima la comida	y no la puedo comer.			Silla	Mesa	Cama	Mesa
Se usa para vestirse.	Dos buenas piernas tenemos	y no podemos andar,	pero el hombre sin nosotros	no se puede presentar.			Vestido	Calcetas	Pantalones	Pantalones
Relacionado con el espacio.	Siempre quietas,	siempre inquietas;	dormidas de día,	de noche despiertas.			Mariposas	Estrellas	Luna	Estrellas
Es un alimento.	En el campo fui nacida,	mis hermanos son los ajos,	y aquel que llora por mí	me está partiendo en pedazos.			El ají	La cebolla	El picante	La cebolla
Relacionado con el clima.	Bolitas blancas y frías,	que rebotan en el suelo,	si no las enfrías pronto	tendrás agua entre los dedos.			Lluvia	Canicas	Granizo	Granizo
