¿QUÉ SIGNIFICA?	¿QUERÉS OPCIONES?	OPCIÓN 1	OPCIÓN 2	OPCIÓN 3	RESPUESTA
Agua que no has de beber, déjala correr.		No pruebes lo que no conoces.	No bebas agua en mal estado.	No te metas en asuntos que no son de tu incumbencia.	No te metas en asuntos que no son de tu incumbencia.
Al nopal solo se le arriman cuando tiene tunas.		No te acerques a alguien que no conoces.	Hay personas que solo acuden a otras por conveniencia.	El nopal puede ser peligroso.	Hay personas que solo acuden a otras por conveniencia.
El flojo y el mezquino recorren dos veces el mismo camino.		Si no te esfuerzas en hacer bien tu trabajo, luego tendrás que trabajar más.	Si eres perezoso, el camino será fácil.	Recorrer un camino largo puede dar flojera.	Si no te esfuerzas en hacer bien tu trabajo, luego tendrás que trabajar más.
El que con lobos anda, a aullar se enseña.		Los lobos que aullan son malos.	Está mal enseñarle cosas incorrectas a los demás.	Las personas que te rodean forman tu manera de ser.	Las personas que te rodean forman tu manera de ser.
El que es perico donde quiera es verde.		Uno siempre tendrá el mismo desempeño en cualquier circunstancia.	Los pericos verdes son los más arrogantes.	Uno puede cambiar de actitud de acuerdo a las circunstancias.	Uno siempre tendrá el mismo desempeño en cualquier circunstancia.
Nada sabe su violín y todos los sones toca.		Las personas que tocan el violín son muy astutas.	Hay personas que callan sus habilidades, pero las demuestran con actos.	Hay gente que simula saber mucho y no sabe nada.	Hay gente que simula saber mucho y no sabe nada.
Ni tanto que queme al santo, ni tanto que no lo alumbre.		Es importante venerar a los santos.	Hay que reconocer las cosas buenas del otro.	Es necesario encontrar un equilibrio en lo que se va a hacer.	Es necesario encontrar un equilibrio en lo que se va a hacer.
Para uno que madruga hay otro que no se duerme.		Siempre habrá alguien mejor que uno.	Es importante despertarte temprano para lograr lo que deseas.	Si no madrugas, luego tendrás sueño.	Siempre habrá alguien mejor que uno.
Se hace pesado el difunto cuando siente que lo cargan.		La muerte de un ser querido es dolorosa.	Hay personas que, cuando son tratadas con amabilidad, se llenan de exigencias y remilgos.	Es mejor no pedir ayuda todo el tiempo y resolver solo los problemas.	Hay personas que, cuando son tratadas con amabilidad, se llenan de exigencias y remilgos.
Dime de qué presumes y te diré de qué careces.		Las personas presumidas caen mal.	Las personas presumidas por lo general ocultan una grandes defectos.	Las personas que haban de sus virtudes son honestas.	Las personas presumidas por lo general ocultan una gran falencia.
El que a buen árbol se arrima, buena sombra le acobija.		Quien se junta con buenas personas tendrá bienestar.	Es necesario tomar un descanso luego de mucho trabajar.	Da calma acobijarse bajo la sombra de un árbol.	Quien se junta con buenas personas tendrá bienestar.
Crea fama y échate a dormir.		Los famosos duermen poco.	Es difícil cambiar la percepción que otros tienen de ti.	Si consigues fama puedes conseguir muchas cosas.	Es difícil cambiar la percepción que otros tienen de ti.
Más sabe el diablo por viejo que por diablo.		Las personas malas son sabias.	Las personas cuando envejecen se vuelven más malas.	La experiencia brinda más conocimiento y sabiduría que la inteligencia.	La experiencia brinda más conocimiento y sabiduría que la inteligencia.
A buen entendedor, pocas palabras.		Cuando la explicación es breve, las personas pueden no entender lo que se dijo.	Si una persona es inteligente, no precisa explicaciones largas para comprender.	A veces, es difícil que otros nos entiendan.	Si una persona es inteligente, no precisa explicaciones largas para comprender.
Le dieron una cucharada de su propio chocolate.		El chocolate hecho en casa siempre es más sabroso.	Le devolvieron a una persona la maldad que habían recibido de ella.	Le dieron a una persona chocolate en mal estado para vengarse de ella.	Le devolvieron a una persona la maldad que habían recibido de ella.
Por la boca muere el pez.		Si respiras abajo del agua puedes ahogarte.	Las personas que hablan mucho pueden hacer el ridículo.	Los peces no respiran por la boca.	Las personas que hablan mucho pueden hacer el ridículo.
No por mucho madrugar, amanece más temprano.		No debemos acelerar procesos o tomar decisiones apresuradas porque puede salir mal.	Quienes madrugan tienen un mejor rendimiento durante el día.	No es necesario madrugar para ser eficaz.	No debemos acelerar procesos o tomar decisiones apresuradas porque puede salir mal.
La carne de burro no es transparente.		La carne de burro no es buena para alimentarse.	No es necesario hacer dieta para verse bien.	Es desconsiderado ponerse frente a una persona que está observando algo.	Es desconsiderado ponerse frente a una persona que está observando algo.
Tanto peca el que mata a la vaca como el que le agarra la pata.		Ser cómplice de una acción que perjudica a alguien está igual de mal que hacerla uno mismo.	Comer carne no está bien si te agradan los animales.	Comenzar a comer sin que estén todos en la mesa es de mala educación.	Ser cómplice de una acción que perjudica a alguien está igual de mal que hacerla uno mismo.
No hay mole si no se muele.		Es necesario trabajar duro para conseguir lo que uno quiere.	No esperes tanto de los demás porque puedes salir lastimado.	No cocines si no sabes la receta.	Es necesario trabajar duro para conseguir lo que uno quiere.
Abanicos en verano y los pesos en la mano.		Vender abanicos es un buen negocio.	Puedes hacer buen dinero trabajando en verano.	Si inicias un negocio de un producto que la gente necesita seguramente te va a ir bien.	Si inicias un negocio con un producto que la gente necesita seguro te va a ir bien.
Perro que ladra, no muerde.		Si alguien habla mucho, suele no llevar a cabo sus acciones.	Los perros que ladran no suelen morder.	Hay que tener cuidado de las personas que hablan mucho.	Si alguien habla mucho, suele no llevar a cabo sus acciones.
Ojos que no ven, corazón que no siente.		No se sufre por algo que no se sabe o no se conoce.	Las personas se enamoran a primera vista.	La gente ciega sufre menos porque no ve.	No se sufre por algo que no se sabe o no se conoce.
Matar dos pájaros de un tiro.		Hay que usar pocas balas.	Resolver dos problemas con la misma acción.	Hacerle daño a una persona sin querer.	Resolver dos problemas con la misma acción.
No hay que juzgar a un libro por su portada.		Para saber cómo es una persona hay que fijarse en como se ve.	Es muy importante la primera impresión para saber cómo es uno.	No hay que juzgar a las personas por las primeras impresiones.	No hay que juzgar a las personas por las primeras impresiones.
Más vale malo conocido que bueno por conocer.		Hay que desconfiar de lo que no se conoce.	Hay que conformarse con lo que se tiene.	Lo que conocemos no es tan malo.	Hay que desconfiar de lo que no se conoce.
El que no arriesga, no gana.		Hay que ser cuidadoso para ganar.	Hay que ser valiente y tomar riesgos para lograr lo que uno quiere.	Si uno se arriesga y decide hacer cosas peligrosas puede perder.	Hay que ser valiente y tomar riesgos para lograr lo que uno quiere.
Hay gato encerrado.		Hay mal olor.	Algo no está claro y hay que desconfiar.	A los gatos les gusta encerrarse.	Algo no está claro y hay que desconfiar.
Dos cabezas funcionan mejor que una.		Mientras más grande el cerebro, más inteligente.	Es mejor pensar con otra persona porque así hay más puntos de vista.	Una persona se concentra más sola.	Es mejor pensar con otra persona porque así hay más puntos de vista.
El que ríe último, ríe mejor.		Hay que ser serio para ganar.	Los que se ríen al principio es porque no entendieron el chiste.	No hay que festejar hasta que se terminan las cosas porque pueden cambiar.	No hay que festejar hasta que se terminan las cosas porque pueden cambiar.
No hay que buscarle el ruido al chicharrón.		No hay que darle muchas vueltas a un problema.	No insistas en algo si ya sabes que pueden haber consecuencias negativas.	No hagas tanto ruido al comer.	No insistas en algo si ya sabes que pueden haber consecuencias negativas.
Lo que no mata, te fortalece.		Hay que tener cuidado con las cosas que comemos.	De las situaciones difíciles se crece como persona.	Es mejor evitar situaciones peligrosas.	De las situaciones difíciles se crece como persona.
A donde el corazón se inclina, el pie camina.		El instinto muchas veces define nuestras acciones.	Cuando te agrada mucho alguien es muy difícil que no se note.	Caminar se hace más ligero cuando el corazón está tranquilo.	El instinto muchas veces define nuestras acciones.
El carbón que ha sido brasa fácilmente vuelve a arder.		Prender una fogata es mucho más fácil si es con carbón.	No hay que jugar con fuego porque puedes quemarte.	Si hubo amor entre dos personas es posible que todavía se sientan atraídos.	Si hubo amor entre dos personas es posible que todavía se sientan atraídos.
Nunca falta un zapato roto para un pie podrido.		Si tienes un zapato roto en días de frío puedes enfermarte.	Siempre habrá alguien que te corresponda a pesar de tus condiciones.	Si te duele algo y no vas al doctor, luego puede ser peor.	Siempre habrá alguien que te corresponda a pesar de tus condiciones.
A darle que es mole de olla.		Si tienes una buena oportunidad debes realizarla con buen ánimo y sin demora.	No hay nada más sabroso que el mole de olla.	Come rápido antes de que se enfríe.	Si tienes una buena oportunidad debes realizarla con buen ánimo y sin demora.
Cuesta más caro el caldo que las albóndigas.		Si compras cosas a bajo precio se romperán más rápido.	Muchas veces los objetos o las cosas secundarias pueden costar más que lo fundamental.	Si no sabes cocinar puedes echarlo todo a perder.	Muchas veces los objetos o las cosas secundarias pueden costar más que lo fundamental.
En lo que tú vas por la leche yo ya traigo el queso.		Si eres lento las personas sacarán provecho de ti.	Cuando alguien ya tiene el camino andado es difícil que sea engañado o pasado por alto.	Es fácil hacer queso si conoces bien los trucos.	Cuando alguien ya tiene el camino andado es difícil que sea engañado o pasado por alto.
Aunque la changa se vista de seda ¡Maranga se queda! 		Aunque aparentes ser algo que no eres, igual se notará tu esencia.	Aunque la changa parezca buena, puede lastimarte.	No puedes tapar tus errores con elogios.	Aunque aparentes ser algo que no eres, igual se notará tu esencia.
Hasta al mejor mono se le cae el zapote.		Hasta la persona más diestra comete errores.	Si eres torpe tienes más chances de lastimarte.	Cuida bien tus objetos porque puedes perderlos fácilmente.	Hasta la persona más diestra comete errores.
